Samsung Galaxy 0;старинка;128886
Samsung Galaxy 1;старинка;85058
Samsung Galaxy 2;старинка;142317
Samsung Galaxy 3;старинка;123539
Iphone 4;новинка;4299
Iphone 5;новинка;79510
Iphone 6;новинка;256088
Iphone 7;новинка;134273
Samsung Galaxy 8;старинка;32444
Samsung Galaxy 9;старинка;140105
Samsung Galaxy 10;старинка;66465
Iphone 11;новинка;287257
Samsung Galaxy 12;старинка;180946
Samsung Galaxy 13;старинка;233887
Iphone 14;новинка;94014
Samsung Galaxy 15;старинка;181407
Samsung Galaxy 16;старинка;267830
Samsung Galaxy 17;старинка;226355
Samsung Galaxy 18;старинка;61630
Samsung Galaxy 19;старинка;116025
Samsung Galaxy 20;старинка;104089
Iphone 21;новинка;191562
Samsung Galaxy 22;старинка;25146
Iphone 23;новинка;65323
Samsung Galaxy 24;старинка;272352
Samsung Galaxy 25;старинка;244720
Samsung Galaxy 26;старинка;183198
Iphone 27;новинка;239704
Iphone 28;новинка;105537
Samsung Galaxy 29;старинка;290354
Samsung Galaxy 30;старинка;109509
Samsung Galaxy 31;старинка;61155
Iphone 32;новинка;90827
Samsung Galaxy 33;старинка;188201
Samsung Galaxy 34;старинка;136745
Samsung Galaxy 35;старинка;15375
Iphone 36;новинка;230717
Samsung Galaxy 37;старинка;66093
Samsung Galaxy 38;старинка;208462
Iphone 39;новинка;207419
Samsung Galaxy 40;старинка;161952
Samsung Galaxy 41;старинка;244132
Samsung Galaxy 42;старинка;171058
Samsung Galaxy 43;старинка;239642
Samsung Galaxy 44;старинка;3001
Iphone 45;новинка;110335
Iphone 46;новинка;210106
Iphone 47;новинка;207502
Iphone 48;новинка;100842
Samsung Galaxy 49;старинка;62597
Samsung Galaxy 50;старинка;182350
Samsung Galaxy 51;старинка;290756
Samsung Galaxy 52;старинка;59009
Iphone 53;новинка;296284
Iphone 54;новинка;264631
Iphone 55;новинка;49552
Samsung Galaxy 56;старинка;189581
Iphone 57;новинка;212296
Samsung Galaxy 58;старинка;87136
Samsung Galaxy 59;старинка;16893
Iphone 60;новинка;46801
Samsung Galaxy 61;старинка;213078
Iphone 62;новинка;22269
Samsung Galaxy 63;старинка;24085
Samsung Galaxy 64;старинка;199980
Iphone 65;новинка;18174
Samsung Galaxy 66;старинка;46709
Samsung Galaxy 67;старинка;174748
Iphone 68;новинка;193817
Iphone 69;новинка;58902
Iphone 70;новинка;65546
Iphone 71;новинка;22531
Iphone 72;новинка;178838
Iphone 73;новинка;126785
Samsung Galaxy 74;старинка;59075
Iphone 75;новинка;158350
Iphone 76;новинка;91363
Samsung Galaxy 77;старинка;200182
Samsung Galaxy 78;старинка;1089
Iphone 79;новинка;93257
Samsung Galaxy 80;старинка;244230
Iphone 81;новинка;9153
Iphone 82;новинка;282222
Iphone 83;новинка;105207
Samsung Galaxy 84;старинка;132967
Iphone 85;новинка;254709
Samsung Galaxy 86;старинка;191439
Iphone 87;новинка;194161
Samsung Galaxy 88;старинка;135414
Samsung Galaxy 89;старинка;84038
Iphone 90;новинка;190512
Iphone 91;новинка;62358
Iphone 92;новинка;241782
Iphone 93;новинка;13983
Samsung Galaxy 94;старинка;259009
Samsung Galaxy 95;старинка;195161
Samsung Galaxy 96;старинка;8919
Iphone 97;новинка;257755
Samsung Galaxy 98;старинка;79665
Iphone 99;новинка;120455
Samsung Galaxy 100;старинка;122091
Samsung Galaxy 101;старинка;298576
Iphone 102;новинка;226319
Samsung Galaxy 103;старинка;172161
Samsung Galaxy 104;старинка;291291
Iphone 105;новинка;17610
Samsung Galaxy 106;старинка;70887
Iphone 107;новинка;124755
Samsung Galaxy 108;старинка;198806
Samsung Galaxy 109;старинка;159651
Samsung Galaxy 110;старинка;223180
Samsung Galaxy 111;старинка;239794
Samsung Galaxy 112;старинка;202392
Iphone 113;новинка;179995
Iphone 114;новинка;43631
Iphone 115;новинка;61259
Iphone 116;новинка;248028
Samsung Galaxy 117;старинка;71059
Iphone 118;новинка;32078
Iphone 119;новинка;32463
Iphone 120;новинка;110550
Samsung Galaxy 121;старинка;272756
Iphone 122;новинка;51599
Samsung Galaxy 123;старинка;265636
Samsung Galaxy 124;старинка;76560
Iphone 125;новинка;277684
Samsung Galaxy 126;старинка;72214
Samsung Galaxy 127;старинка;286013
Iphone 128;новинка;139661
Iphone 129;новинка;276999
Iphone 130;новинка;174172
Samsung Galaxy 131;старинка;197442
Samsung Galaxy 132;старинка;133389
Iphone 133;новинка;123868
Iphone 134;новинка;287335
Iphone 135;новинка;274471
Iphone 136;новинка;113394
Iphone 137;новинка;112236
Iphone 138;новинка;158292
Iphone 139;новинка;30647
Iphone 140;новинка;128419
Iphone 141;новинка;171370
Samsung Galaxy 142;старинка;139150
Samsung Galaxy 143;старинка;199681
Samsung Galaxy 144;старинка;77591
Samsung Galaxy 145;старинка;25230
Samsung Galaxy 146;старинка;61854
Samsung Galaxy 147;старинка;166342
Samsung Galaxy 148;старинка;156165
Samsung Galaxy 149;старинка;300866
Iphone 150;новинка;278007
Iphone 151;новинка;4652
Iphone 152;новинка;159283
Samsung Galaxy 153;старинка;92873
Iphone 154;новинка;167536
Iphone 155;новинка;155466
Iphone 156;новинка;75657
Samsung Galaxy 157;старинка;244545
Samsung Galaxy 158;старинка;147723
Samsung Galaxy 159;старинка;92656
Iphone 160;новинка;157038
Samsung Galaxy 161;старинка;19145
Samsung Galaxy 162;старинка;211927
Iphone 163;новинка;285925
Samsung Galaxy 164;старинка;78411
Iphone 165;новинка;47050
Samsung Galaxy 166;старинка;218761
Samsung Galaxy 167;старинка;135697
Samsung Galaxy 168;старинка;270429
Samsung Galaxy 169;старинка;2127
Samsung Galaxy 170;старинка;247860
Iphone 171;новинка;278417
Samsung Galaxy 172;старинка;248870
Samsung Galaxy 173;старинка;39239
Iphone 174;новинка;160080
Samsung Galaxy 175;старинка;228275
Samsung Galaxy 176;старинка;222465
Iphone 177;новинка;68694
Iphone 178;новинка;245833
Samsung Galaxy 179;старинка;135266
Iphone 180;новинка;23174
Samsung Galaxy 181;старинка;154379
Iphone 182;новинка;93630
Samsung Galaxy 183;старинка;109557
Iphone 184;новинка;171441
Samsung Galaxy 185;старинка;64161
Samsung Galaxy 186;старинка;177971
Samsung Galaxy 187;старинка;20157
Samsung Galaxy 188;старинка;31495
Iphone 189;новинка;286512
Samsung Galaxy 190;старинка;243573
Iphone 191;новинка;224739
Samsung Galaxy 192;старинка;53331
Samsung Galaxy 193;старинка;146401
Iphone 194;новинка;14482
Iphone 195;новинка;153685
Samsung Galaxy 196;старинка;162461
Iphone 197;новинка;34420
Samsung Galaxy 198;старинка;149397
Iphone 199;новинка;7764
Iphone 200;новинка;31044
Iphone 201;новинка;5805
Samsung Galaxy 202;старинка;105023
Iphone 203;новинка;183043
Samsung Galaxy 204;старинка;85006
Iphone 205;новинка;34356
Samsung Galaxy 206;старинка;168773
Samsung Galaxy 207;старинка;86739
Samsung Galaxy 208;старинка;296813
Samsung Galaxy 209;старинка;139338
Samsung Galaxy 210;старинка;84130
Samsung Galaxy 211;старинка;157984
Samsung Galaxy 212;старинка;135202
Samsung Galaxy 213;старинка;258091
Iphone 214;новинка;296274
Samsung Galaxy 215;старинка;42261
Samsung Galaxy 216;старинка;104016
Samsung Galaxy 217;старинка;48806
Iphone 218;новинка;113204
Iphone 219;новинка;43473
Iphone 220;новинка;202722
Iphone 221;новинка;204921
Samsung Galaxy 222;старинка;128573
Iphone 223;новинка;201029
Samsung Galaxy 224;старинка;250913
Samsung Galaxy 225;старинка;108649
Samsung Galaxy 226;старинка;100276
Samsung Galaxy 227;старинка;141670
Iphone 228;новинка;29197
Iphone 229;новинка;299878
Iphone 230;новинка;95720
Samsung Galaxy 231;старинка;70325
Iphone 232;новинка;34920
Samsung Galaxy 233;старинка;190300
Samsung Galaxy 234;старинка;300487
Iphone 235;новинка;179373
Samsung Galaxy 236;старинка;279139
Samsung Galaxy 237;старинка;66595
Iphone 238;новинка;31074
Iphone 239;новинка;287871
Samsung Galaxy 240;старинка;16213
Samsung Galaxy 241;старинка;161324
Iphone 242;новинка;10920
Iphone 243;новинка;98062
Iphone 244;новинка;47486
Iphone 245;новинка;59222
Samsung Galaxy 246;старинка;180025
Samsung Galaxy 247;старинка;110199
Iphone 248;новинка;289729
Iphone 249;новинка;132299
Samsung Galaxy 250;старинка;10433
Samsung Galaxy 251;старинка;186665
Samsung Galaxy 252;старинка;58044
Samsung Galaxy 253;старинка;126641
Samsung Galaxy 254;старинка;38693
Samsung Galaxy 255;старинка;187573
Samsung Galaxy 256;старинка;100749
Samsung Galaxy 257;старинка;193087
Iphone 258;новинка;45559
Iphone 259;новинка;10718
Iphone 260;новинка;57315
Samsung Galaxy 261;старинка;83515
Iphone 262;новинка;97300
Samsung Galaxy 263;старинка;20276
Samsung Galaxy 264;старинка;57216
Iphone 265;новинка;143231
Samsung Galaxy 266;старинка;234874
Samsung Galaxy 267;старинка;234739
Samsung Galaxy 268;старинка;5533
Iphone 269;новинка;294927
Samsung Galaxy 270;старинка;165646
Samsung Galaxy 271;старинка;131711
Iphone 272;новинка;292008
Iphone 273;новинка;160355
Iphone 274;новинка;254588
Samsung Galaxy 275;старинка;183441
Iphone 276;новинка;66338
Iphone 277;новинка;56618
Samsung Galaxy 278;старинка;204359
Iphone 279;новинка;276984
Samsung Galaxy 280;старинка;57212
Samsung Galaxy 281;старинка;8327
Samsung Galaxy 282;старинка;117183
Iphone 283;новинка;175282
Samsung Galaxy 284;старинка;152349
Samsung Galaxy 285;старинка;86539
Iphone 286;новинка;121341
Samsung Galaxy 287;старинка;122897
Samsung Galaxy 288;старинка;176706
Iphone 289;новинка;240694
Iphone 290;новинка;197451
Samsung Galaxy 291;старинка;164754
Samsung Galaxy 292;старинка;85739
Iphone 293;новинка;199097
Iphone 294;новинка;238416
Iphone 295;новинка;164413
Iphone 296;новинка;98181
Iphone 297;новинка;165475
Iphone 298;новинка;145195
Samsung Galaxy 299;старинка;66767
Iphone 300;новинка;163242
Samsung Galaxy 301;старинка;205120
Samsung Galaxy 302;старинка;144708
Samsung Galaxy 303;старинка;115869
Samsung Galaxy 304;старинка;252085
Samsung Galaxy 305;старинка;5489
Iphone 306;новинка;4584
Samsung Galaxy 307;старинка;170057
Iphone 308;новинка;66391
Samsung Galaxy 309;старинка;156814
Samsung Galaxy 310;старинка;297847
Iphone 311;новинка;6616
Iphone 327;новинка;64816
Samsung Galaxy 328;старинка;37839
Samsung Galaxy 329;старинка;27217
Samsung Galaxy 330;старинка;94005
Iphone 331;новинка;224570
Samsung Galaxy 332;старинка;231241
Samsung Galaxy 333;старинка;150406
Iphone 334;новинка;68149
Samsung Galaxy 335;старинка;198221
Samsung Galaxy 336;старинка;93834
Iphone 337;новинка;248629
Iphone 338;новинка;121561
Iphone 339;новинка;97774
Iphone 340;новинка;154206
Samsung Galaxy 341;старинка;109700
Samsung Galaxy 342;старинка;74200
Samsung Galaxy 343;старинка;94449
Samsung Galaxy 344;старинка;300226
Samsung Galaxy 345;старинка;247137
Samsung Galaxy 346;старинка;105614
Samsung Galaxy 347;старинка;241942
Iphone 348;новинка;201859
Samsung Galaxy 349;старинка;191592
Samsung Galaxy 350;старинка;47311
Iphone 351;новинка;192280
Iphone 352;новинка;264178
Samsung Galaxy 353;старинка;238184
Samsung Galaxy 354;старинка;32647
Iphone 355;новинка;276092
Iphone 356;новинка;197954
Iphone 357;новинка;246835
Iphone 358;новинка;148482
Iphone 359;новинка;198200
Iphone 360;новинка;271778
Samsung Galaxy 361;старинка;69142
Samsung Galaxy 362;старинка;87531
Samsung Galaxy 363;старинка;220722
Samsung Galaxy 364;старинка;162189
Samsung Galaxy 365;старинка;285800
Samsung Galaxy 366;старинка;254846
Iphone 367;новинка;18406
Samsung Galaxy 368;старинка;233413
Iphone 369;новинка;277151
Iphone 370;новинка;287587
Samsung Galaxy 371;старинка;202799
Iphone 372;новинка;186137
Samsung Galaxy 373;старинка;146196
Iphone 374;новинка;114077
Iphone 375;новинка;160726
Samsung Galaxy 376;старинка;259453
Iphone 377;новинка;238010
Samsung Galaxy 378;старинка;12437
Iphone 379;новинка;146087
Iphone 380;новинка;224740
Samsung Galaxy 381;старинка;33640
Iphone 382;новинка;274526
Iphone 383;новинка;50337
Iphone 384;новинка;158043
Samsung Galaxy 385;старинка;111997
Samsung Galaxy 386;старинка;76393
Samsung Galaxy 387;старинка;47361
Samsung Galaxy 388;старинка;83078
Samsung Galaxy 389;старинка;12427
Iphone 390;новинка;64494
Iphone 391;новинка;122877
Samsung Galaxy 392;старинка;31071
Samsung Galaxy 393;старинка;103914
Iphone 394;новинка;111563
Iphone 395;новинка;10288
Samsung Galaxy 396;старинка;199803
Iphone 397;новинка;16059
Samsung Galaxy 398;старинка;24886
Samsung Galaxy 399;старинка;7384
Iphone 400;новинка;183362
Samsung Galaxy 401;старинка;7452
Samsung Galaxy 402;старинка;254379
Iphone 403;новинка;120961
Iphone 404;новинка;127457
Iphone 405;новинка;280437
Samsung Galaxy 406;старинка;229787
Samsung Galaxy 407;старинка;114415
Iphone 408;новинка;275586
Iphone 409;новинка;250207
Iphone 410;новинка;145632
Iphone 411;новинка;220242
Samsung Galaxy 412;старинка;61272
Iphone 413;новинка;31404
Iphone 414;новинка;192805
Samsung Galaxy 415;старинка;198662
Iphone 416;новинка;125190
Samsung Galaxy 417;старинка;236139
Iphone 418;новинка;215277
Iphone 419;новинка;167535
Iphone 420;новинка;67382
Samsung Galaxy 421;старинка;14734
Samsung Galaxy 422;старинка;204798
Iphone 423;новинка;46003
Samsung Galaxy 424;старинка;215582
Iphone 425;новинка;194780
Iphone 426;новинка;234555
Samsung Galaxy 427;старинка;54815
Samsung Galaxy 428;старинка;168573
Samsung Galaxy 429;старинка;250202
Iphone 430;новинка;50660
Iphone 431;новинка;155922
Samsung Galaxy 432;старинка;139110
Samsung Galaxy 433;старинка;224903
Iphone 434;новинка;102761
Samsung Galaxy 435;старинка;110246
Iphone 436;новинка;224336
Iphone 437;новинка;112672
Samsung Galaxy 438;старинка;33402
Samsung Galaxy 439;старинка;209637
Samsung Galaxy 440;старинка;288463
Iphone 441;новинка;44365
Samsung Galaxy 442;старинка;81404
Samsung Galaxy 443;старинка;160104
Samsung Galaxy 444;старинка;50340
Samsung Galaxy 445;старинка;96203
Samsung Galaxy 446;старинка;205946
Samsung Galaxy 447;старинка;136835
Iphone 448;новинка;246202
Iphone 449;новинка;6646
Samsung Galaxy 450;старинка;118671
Iphone 451;новинка;79497
Samsung Galaxy 452;старинка;291424
Samsung Galaxy 453;старинка;114471
Samsung Galaxy 454;старинка;255628
Iphone 455;новинка;170813
Samsung Galaxy 456;старинка;255117
Iphone 457;новинка;223257
Iphone 458;новинка;117079
Iphone 459;новинка;251816
Samsung Galaxy 460;старинка;96212
Samsung Galaxy 461;старинка;238134
Iphone 462;новинка;50951
Samsung Galaxy 463;старинка;271271
Samsung Galaxy 464;старинка;188975
Samsung Galaxy 465;старинка;78387
Iphone 466;новинка;254117
Samsung Galaxy 467;старинка;267017
Samsung Galaxy 468;старинка;195965
Samsung Galaxy 469;старинка;287273
Samsung Galaxy 470;старинка;76072
Iphone 471;новинка;45145
Iphone 472;новинка;116353
Samsung Galaxy 473;старинка;183759
Samsung Galaxy 474;старинка;102858
Iphone 475;новинка;174096
Samsung Galaxy 476;старинка;173118
Samsung Galaxy 477;старинка;54924
Samsung Galaxy 478;старинка;152577
Iphone 479;новинка;53056
Samsung Galaxy 480;старинка;184601
Iphone 481;новинка;103230
Iphone 482;новинка;174227
Iphone 483;новинка;100604
Iphone 484;новинка;137684
Samsung Galaxy 485;старинка;148347
Samsung Galaxy 486;старинка;261815
Samsung Galaxy 487;старинка;92014
Iphone 488;новинка;107480
Iphone 489;новинка;291640
Samsung Galaxy 490;старинка;125763
Iphone 491;новинка;124841
Iphone 492;новинка;209236
Samsung Galaxy 493;старинка;250443
Samsung Galaxy 494;старинка;216212
Iphone 495;новинка;162010
Samsung Galaxy 496;старинка;88641
Iphone 497;новинка;242217
Iphone 498;новинка;55469
Iphone 499;новинка;13061
Samsung Galaxy 500;старинка;164428
Samsung Galaxy 501;старинка;255821
Samsung Galaxy 502;старинка;6456
Iphone 503;новинка;236081
Iphone 504;новинка;82153
Samsung Galaxy 505;старинка;17446
Samsung Galaxy 506;старинка;143784
Iphone 507;новинка;18348
Samsung Galaxy 508;старинка;219316
Iphone 509;новинка;258599
Iphone 510;новинка;105971
Iphone 511;новинка;280697
Samsung Galaxy 512;старинка;32608
Samsung Galaxy 513;старинка;109933
Iphone 514;новинка;22804
Samsung Galaxy 515;старинка;170253
Samsung Galaxy 516;старинка;222826
Iphone 517;новинка;101394
Iphone 518;новинка;220042
Iphone 519;новинка;199609
Samsung Galaxy 520;старинка;139542
Samsung Galaxy 521;старинка;298016
Iphone 522;новинка;184928
Iphone 523;новинка;24539
Samsung Galaxy 524;старинка;205881
Samsung Galaxy 525;старинка;26139
Samsung Galaxy 526;старинка;12044
Iphone 527;новинка;13602
Iphone 528;новинка;30864
Iphone 529;новинка;217401
Iphone 530;новинка;104598
Iphone 531;новинка;180480
Samsung Galaxy 532;старинка;124237
Iphone 533;новинка;110005
Iphone 534;новинка;225466
Samsung Galaxy 535;старинка;17824
Iphone 536;новинка;59465
Iphone 537;новинка;165526
Iphone 538;новинка;22170
Samsung Galaxy 539;старинка;35085
Samsung Galaxy 540;старинка;49804
Samsung Galaxy 541;старинка;138929
Samsung Galaxy 542;старинка;192711
Iphone 543;новинка;221074
Samsung Galaxy 544;старинка;228315
Iphone 545;новинка;166417
Samsung Galaxy 546;старинка;56487
Samsung Galaxy 547;старинка;109781
Samsung Galaxy 548;старинка;59089
Samsung Galaxy 549;старинка;253268
Iphone 550;новинка;64370
Iphone 639;новинка;190909
Samsung Galaxy 640;старинка;182052
Iphone 641;новинка;211477
Iphone 642;новинка;32280
Iphone 643;новинка;114098
Iphone 644;новинка;268611
Iphone 645;новинка;76668
Samsung Galaxy 646;старинка;4518
Iphone 647;новинка;279215
Samsung Galaxy 648;старинка;228191
Samsung Galaxy 649;старинка;238895
Samsung Galaxy 650;старинка;259268
Samsung Galaxy 651;старинка;161115
Iphone 652;новинка;140182
Samsung Galaxy 653;старинка;180736
Iphone 654;новинка;147046
Samsung Galaxy 655;старинка;73247
Iphone 656;новинка;234322
Samsung Galaxy 657;старинка;267714
Samsung Galaxy 658;старинка;242518
Samsung Galaxy 659;старинка;52056
Samsung Galaxy 660;старинка;195149
Samsung Galaxy 661;старинка;287259
Iphone 662;новинка;16130
Samsung Galaxy 663;старинка;269489
Samsung Galaxy 664;старинка;66707
Iphone 665;новинка;248861
Samsung Galaxy 666;старинка;151067
Iphone 667;новинка;271413
Samsung Galaxy 668;старинка;195115
Samsung Galaxy 669;старинка;51537
Iphone 670;новинка;61293
Iphone 671;новинка;195224
Samsung Galaxy 672;старинка;8753
Samsung Galaxy 673;старинка;140380
Samsung Galaxy 674;старинка;96530
Iphone 675;новинка;36651
Iphone 676;новинка;184201
Iphone 677;новинка;239551
Samsung Galaxy 678;старинка;278473
Samsung Galaxy 679;старинка;297723
Samsung Galaxy 680;старинка;103335
Samsung Galaxy 681;старинка;270665
Samsung Galaxy 682;старинка;43753
Samsung Galaxy 683;старинка;262828
Iphone 684;новинка;45105
Iphone 685;новинка;94162
Samsung Galaxy 686;старинка;14420
Iphone 687;новинка;187142
Iphone 688;новинка;100630
Iphone 689;новинка;69014
Samsung Galaxy 690;старинка;275569
Iphone 691;новинка;251284
Iphone 692;новинка;151688
Iphone 693;новинка;125459
Samsung Galaxy 694;старинка;115988
Samsung Galaxy 695;старинка;28715
Iphone 696;новинка;161248
Iphone 697;новинка;105624
Samsung Galaxy 698;старинка;261613
Iphone 699;новинка;111130
Samsung Galaxy 700;старинка;96785
Samsung Galaxy 701;старинка;124321
Iphone 702;новинка;169670
Samsung Galaxy 703;старинка;13489
Iphone 704;новинка;274169
Samsung Galaxy 705;старинка;118593
Samsung Galaxy 706;старинка;128464
Iphone 707;новинка;7685
Samsung Galaxy 708;старинка;165949
Samsung Galaxy 709;старинка;53867
Iphone 710;новинка;145833
Samsung Galaxy 711;старинка;117823
Samsung Galaxy 712;старинка;124619
Iphone 713;новинка;77063
Samsung Galaxy 714;старинка;291653
Iphone 715;новинка;176800
Samsung Galaxy 716;старинка;282140
Samsung Galaxy 717;старинка;300112
Iphone 718;новинка;58070
Samsung Galaxy 719;старинка;59310
Iphone 720;новинка;260962
Iphone 721;новинка;52547
Samsung Galaxy 722;старинка;215626
Iphone 723;новинка;30619
Samsung Galaxy 724;старинка;68611
Iphone 725;новинка;26288
Samsung Galaxy 726;старинка;219324
Iphone 727;новинка;141680
Iphone 728;новинка;110337
Samsung Galaxy 729;старинка;185110
Samsung Galaxy 730;старинка;197151
Iphone 731;новинка;52857
Samsung Galaxy 732;старинка;230687
Samsung Galaxy 733;старинка;96329
Samsung Galaxy 734;старинка;230688
Samsung Galaxy 735;старинка;49147
Samsung Galaxy 736;старинка;141637
Samsung Galaxy 737;старинка;7454
Iphone 738;новинка;12279
Samsung Galaxy 739;старинка;134397
Samsung Galaxy 740;старинка;30724
Iphone 741;новинка;206896
Iphone 742;новинка;164517
Iphone 743;новинка;250913
Iphone 744;новинка;191261
Iphone 745;новинка;31683
Samsung Galaxy 746;старинка;269634
Iphone 747;новинка;184748
Iphone 748;новинка;91604
Iphone 749;новинка;239253
Iphone 750;новинка;80008
Samsung Galaxy 751;старинка;156757
Iphone 752;новинка;295837
Iphone 753;новинка;100264
Samsung Galaxy 754;старинка;101848
Iphone 755;новинка;258796
Samsung Galaxy 756;старинка;165411
Iphone 757;новинка;255668
Samsung Galaxy 758;старинка;183405
Iphone 759;новинка;224110
Samsung Galaxy 760;старинка;125925
Iphone 761;новинка;88244
Samsung Galaxy 762;старинка;221129
Iphone 763;новинка;248107
Samsung Galaxy 764;старинка;26186
Samsung Galaxy 765;старинка;79980
Samsung Galaxy 766;старинка;178776
Samsung Galaxy 767;старинка;32591
Iphone 768;новинка;170190
Samsung Galaxy 769;старинка;268358
Samsung Galaxy 770;старинка;245861
Iphone 771;новинка;196376
Iphone 772;новинка;135950
Samsung Galaxy 773;старинка;213709
Samsung Galaxy 774;старинка;141173
Samsung Galaxy 775;старинка;119388
Samsung Galaxy 776;старинка;39232
Samsung Galaxy 777;старинка;140627
Samsung Galaxy 778;старинка;68694
Samsung Galaxy 779;старинка;117910
Iphone 780;новинка;195706
Iphone 781;новинка;128504
Iphone 782;новинка;164982
Iphone 783;новинка;214339
Iphone 784;новинка;263198
Iphone 785;новинка;169719
Samsung Galaxy 786;старинка;286135
Samsung Galaxy 787;старинка;226866
Iphone 788;новинка;258059
Samsung Galaxy 789;старинка;96645
Iphone 790;новинка;218931
Samsung Galaxy 791;старинка;5753
Iphone 792;новинка;21835
Iphone 793;новинка;239942
Samsung Galaxy 794;старинка;213175
Samsung Galaxy 795;старинка;298316
Iphone 796;новинка;236667
Iphone 797;новинка;40129
Samsung Galaxy 798;старинка;161199
Iphone 799;новинка;75132
Samsung Galaxy 800;старинка;100564
Iphone 801;новинка;180633
Iphone 802;новинка;292208
Samsung Galaxy 803;старинка;105506
Iphone 804;новинка;68985
Samsung Galaxy 805;старинка;74941
Iphone 806;новинка;157170
Iphone 807;новинка;123029
Samsung Galaxy 808;старинка;20164
Iphone 809;новинка;248499
Iphone 810;новинка;153451
Iphone 811;новинка;42483
Samsung Galaxy 812;старинка;55072
Iphone 813;новинка;124326
Iphone 814;новинка;199883
Iphone 815;новинка;40683
Samsung Galaxy 816;старинка;109026
Samsung Galaxy 817;старинка;101821
Samsung Galaxy 818;старинка;262631
Iphone 819;новинка;97220
Samsung Galaxy 820;старинка;47061
Iphone 821;новинка;36000
Samsung Galaxy 822;старинка;74290
Samsung Galaxy 823;старинка;182416
Samsung Galaxy 824;старинка;200868
Iphone 825;новинка;188461
Iphone 826;новинка;220226
Iphone 827;новинка;25787
Samsung Galaxy 828;старинка;275493
Iphone 829;новинка;189636
Samsung Galaxy 830;старинка;74374
Samsung Galaxy 831;старинка;111215
Samsung Galaxy 832;старинка;194006
Iphone 833;новинка;146097
Iphone 834;новинка;66537
Samsung Galaxy 835;старинка;50640
Samsung Galaxy 836;старинка;162865
Samsung Galaxy 837;старинка;44676
Samsung Galaxy 838;старинка;211905
Samsung Galaxy 839;старинка;19264
Iphone 840;новинка;246830
Samsung Galaxy 841;старинка;258934
Iphone 842;новинка;269201
Samsung Galaxy 843;старинка;169104
Iphone 844;новинка;256836
Samsung Galaxy 845;старинка;292365
Iphone 846;новинка;180302
Iphone 847;новинка;36177
Iphone 848;новинка;50379
Samsung Galaxy 849;старинка;49411
Samsung Galaxy 850;старинка;105025
Samsung Galaxy 851;старинка;190388
Samsung Galaxy 852;старинка;279824
Iphone 853;новинка;274454
Samsung Galaxy 854;старинка;32232
Samsung Galaxy 855;старинка;82623
Samsung Galaxy 856;старинка;170991
Iphone 857;новинка;205030
Iphone 858;новинка;105015
Iphone 859;новинка;121991
Iphone 860;новинка;184286
Iphone 861;новинка;238226
Iphone 862;новинка;254707
Samsung Galaxy 863;старинка;157551
Iphone 864;новинка;131362
Iphone 865;новинка;107675
Iphone 866;новинка;223592
Iphone 867;новинка;83586
Iphone 868;новинка;258115
Iphone 869;новинка;196430
Samsung Galaxy 870;старинка;268164
Iphone 871;новинка;190559
Iphone 872;новинка;159995
Samsung Galaxy 873;старинка;56218
Iphone 874;новинка;93833
Iphone 875;новинка;135409
Samsung Galaxy 876;старинка;115003
Samsung Galaxy 877;старинка;282636
Samsung Galaxy 878;старинка;34580
Samsung Galaxy 879;старинка;16253
Samsung Galaxy 880;старинка;132422
Iphone 881;новинка;10519
Samsung Galaxy 882;старинка;246070
Samsung Galaxy 883;старинка;181146
Iphone 884;новинка;199407
Iphone 885;новинка;131205
Iphone 886;новинка;104359
Iphone 887;новинка;38080
Iphone 888;новинка;39695
Samsung Galaxy 889;старинка;36672
Samsung Galaxy 890;старинка;143416
Samsung Galaxy 891;старинка;264116
Iphone 892;новинка;236840
Iphone 893;новинка;99171
Samsung Galaxy 894;старинка;298201
Iphone 895;новинка;5304
Samsung Galaxy 896;старинка;295546
Iphone 897;новинка;32195
Iphone 898;новинка;296109
Iphone 899;новинка;142588
Iphone 900;новинка;11637
Samsung Galaxy 901;старинка;172042
Iphone 902;новинка;121857
Samsung Galaxy 903;старинка;150387
Iphone 904;новинка;124099
Samsung Galaxy 905;старинка;294615
Iphone 906;новинка;33141
Samsung Galaxy 907;старинка;45444
Iphone 908;новинка;156904
Iphone 909;новинка;181965
Iphone 910;новинка;267969
Iphone 911;новинка;214838
Iphone 912;новинка;175165
Iphone 913;новинка;300214
Samsung Galaxy 914;старинка;116959
Iphone 915;новинка;60220
Iphone 916;новинка;230504
Samsung Galaxy 917;старинка;289663
Samsung Galaxy 918;старинка;218147
Iphone 919;новинка;109731
Samsung Galaxy 920;старинка;40175
Iphone 921;новинка;7468
Iphone 922;новинка;208230
Iphone 923;новинка;107302
Samsung Galaxy 924;старинка;121326
Iphone 925;новинка;66933
Iphone 926;новинка;220726
Iphone 927;новинка;66449
Iphone 928;новинка;109675
Samsung Galaxy 929;старинка;169467
Iphone 930;новинка;199262
Iphone 931;новинка;193630
Iphone 932;новинка;288716
Samsung Galaxy 933;старинка;120551
Iphone 934;новинка;14207
Iphone 935;новинка;291345
Iphone 936;новинка;87344
Samsung Galaxy 937;старинка;174854
Iphone 938;новинка;197725
Samsung Galaxy 939;старинка;21787
Iphone 940;новинка;280384
Iphone 941;новинка;88264
Samsung Galaxy 942;старинка;8732
Iphone 943;новинка;24293
Iphone 944;новинка;221515
Samsung Galaxy 945;старинка;78563
Iphone 946;новинка;55430
Samsung Galaxy 947;старинка;200788
Iphone 948;новинка;114690
Iphone 949;новинка;88955
Iphone 950;новинка;159298
Iphone 951;новинка;153448
Samsung Galaxy 952;старинка;223432
Iphone 953;новинка;174875
Iphone 954;новинка;255219
Samsung Galaxy 955;старинка;115826
Samsung Galaxy 956;старинка;297077
Iphone 957;новинка;292209
Samsung Galaxy 958;старинка;256236
Iphone 959;новинка;207525
Iphone 960;новинка;234119
Samsung Galaxy 961;старинка;175369
Samsung Galaxy 962;старинка;244671
Samsung Galaxy 963;старинка;52308
Iphone 964;новинка;223238
Samsung Galaxy 965;старинка;182157
Iphone 966;новинка;44751
Iphone 967;новинка;111975
Samsung Galaxy 968;старинка;72940
Iphone 969;новинка;213290
Iphone 979;новинка;298126
Samsung Galaxy 980;старинка;83197
Samsung Galaxy 981;старинка;87593
Iphone 982;новинка;129722
Samsung Galaxy 983;старинка;160791
Samsung Galaxy 984;старинка;125819
Iphone 985;новинка;299599
Iphone 986;новинка;165833
Iphone 987;новинка;265665
Iphone 988;новинка;241975
Iphone 989;новинка;76558
Iphone 990;новинка;8898
Samsung Galaxy 991;старинка;274710
Samsung Galaxy 992;старинка;260476
Samsung Galaxy 993;старинка;171934
Samsung Galaxy 994;старинка;194182
Samsung Galaxy 995;старинка;61476
Samsung Galaxy 996;старинка;34811
Samsung Galaxy 997;старинка;8463
Samsung Galaxy 998;старинка;281257
Iphone 999;новинка;167117
Samsung Galaxy 1000;старинка;91873
Samsung Galaxy 1001;старинка;179319
Samsung Galaxy 1002;старинка;116482
Iphone 1003;новинка;10357
Samsung Galaxy 1004;старинка;72883
Iphone 1005;новинка;225831
Samsung Galaxy 1006;старинка;45863
Samsung Galaxy 1007;старинка;47602
Iphone 1008;новинка;246680
Samsung Galaxy 1009;старинка;28447
Samsung Galaxy 1010;старинка;278439
Samsung Galaxy 1011;старинка;97033
Iphone 1012;новинка;202313
Iphone 1013;новинка;29220
Iphone 1014;новинка;290222
Samsung Galaxy 1015;старинка;235217
Samsung Galaxy 1016;старинка;263919
Samsung Galaxy 1017;старинка;238582
Samsung Galaxy 1018;старинка;210701
Iphone 1019;новинка;97312
Iphone 1020;новинка;16980
Samsung Galaxy 1021;старинка;127548
Iphone 1022;новинка;215697
Iphone 1023;новинка;168465
Iphone 1024;новинка;224178
Samsung Galaxy 1025;старинка;256997
Iphone 1026;новинка;195844
Samsung Galaxy 1027;старинка;17988
Samsung Galaxy 1028;старинка;267601
Samsung Galaxy 1029;старинка;71927
Iphone 1030;новинка;101553
Samsung Galaxy 1031;старинка;99855
Samsung Galaxy 1032;старинка;150647
Iphone 1033;новинка;234652
Iphone 1034;новинка;62984
Iphone 1035;новинка;234903
Samsung Galaxy 1036;старинка;166054
Samsung Galaxy 1037;старинка;72975
Iphone 1038;новинка;132841
Iphone 1039;новинка;14323
Samsung Galaxy 1040;старинка;70860
Samsung Galaxy 1041;старинка;134036
Samsung Galaxy 1042;старинка;234958
Iphone 1043;новинка;199648
Samsung Galaxy 1044;старинка;46279
Iphone 1045;новинка;95423
Samsung Galaxy 1046;старинка;19931
Iphone 1047;новинка;122914
Iphone 1048;новинка;184800
Samsung Galaxy 1049;старинка;174218
Iphone 1050;новинка;60222
Samsung Galaxy 1051;старинка;157194
Samsung Galaxy 1052;старинка;153287
Iphone 1053;новинка;51968
Iphone 1054;новинка;150028
Iphone 1055;новинка;126699
Samsung Galaxy 1056;старинка;120024
Iphone 1057;новинка;13744
Samsung Galaxy 1058;старинка;241405
Iphone 1059;новинка;231812
Samsung Galaxy 1060;старинка;225758
Samsung Galaxy 1061;старинка;12076
Iphone 1062;новинка;228047
Iphone 1063;новинка;82630
Samsung Galaxy 1064;старинка;208468
Iphone 1065;новинка;103598
Samsung Galaxy 1066;старинка;284834
Samsung Galaxy 1067;старинка;236261
Iphone 1068;новинка;137809
Iphone 1069;новинка;168993
Iphone 1070;новинка;233724
Iphone 1071;новинка;198164
Iphone 1072;новинка;9103
Samsung Galaxy 1073;старинка;257603
Iphone 1074;новинка;46984
Iphone 1075;новинка;294527
Samsung Galaxy 1076;старинка;4843
Iphone 1077;новинка;15259
Samsung Galaxy 1078;старинка;84358
Samsung Galaxy 1079;старинка;185050
Iphone 1080;новинка;200601
Samsung Galaxy 1081;старинка;75684
Samsung Galaxy 1082;старинка;100513
Samsung Galaxy 1083;старинка;84473
Samsung Galaxy 1084;старинка;164338
Samsung Galaxy 1085;старинка;190694
Iphone 1086;новинка;99774
Samsung Galaxy 1087;старинка;256270
Samsung Galaxy 1088;старинка;130005
Iphone 1089;новинка;74401
Samsung Galaxy 1090;старинка;250671
Iphone 1091;новинка;252254
Iphone 1092;новинка;55639
Samsung Galaxy 1093;старинка;200057
Iphone 1094;новинка;35464
Samsung Galaxy 1095;старинка;157973
Iphone 1096;новинка;172408
Iphone 1097;новинка;91767
Iphone 1098;новинка;28046
Iphone 1099;новинка;63282
Iphone 1100;новинка;63532
Iphone 1101;новинка;79579
Samsung Galaxy 1102;старинка;213614
Samsung Galaxy 1103;старинка;15351
Samsung Galaxy 1104;старинка;100203
Iphone 1105;новинка;276906
Samsung Galaxy 1106;старинка;74649
Iphone 1107;новинка;87147
Samsung Galaxy 1108;старинка;226401
Samsung Galaxy 1109;старинка;102105
Samsung Galaxy 1110;старинка;100347
Iphone 1111;новинка;214213
Iphone 1112;новинка;267573
Samsung Galaxy 1113;старинка;117433
Samsung Galaxy 1114;старинка;83699
Iphone 1115;новинка;175174
Samsung Galaxy 1116;старинка;109461
Iphone 1117;новинка;71617
Samsung Galaxy 1118;старинка;143364
Samsung Galaxy 1119;старинка;38064
Samsung Galaxy 1120;старинка;98841
Iphone 1121;новинка;11517
Samsung Galaxy 1122;старинка;136878
Iphone 1123;новинка;250512
Samsung Galaxy 1124;старинка;78997
Samsung Galaxy 1125;старинка;217899
Samsung Galaxy 1126;старинка;32611
Iphone 1127;новинка;159415
Samsung Galaxy 1128;старинка;27959
Iphone 1129;новинка;23655
Samsung Galaxy 1130;старинка;10415
Samsung Galaxy 1131;старинка;126820
Samsung Galaxy 1132;старинка;281214
Samsung Galaxy 1133;старинка;144252
Iphone 1134;новинка;180809
Iphone 1135;новинка;256356
Iphone 1136;новинка;227156
Samsung Galaxy 1137;старинка;60564
Samsung Galaxy 1138;старинка;124737
Samsung Galaxy 1139;старинка;99797
Iphone 1140;новинка;300517
Samsung Galaxy 1141;старинка;261930
Iphone 1142;новинка;83303
Iphone 1143;новинка;267962
Iphone 1144;новинка;217778
Samsung Galaxy 1145;старинка;165412
Samsung Galaxy 1146;старинка;94291
Iphone 1147;новинка;288716
Samsung Galaxy 1148;старинка;219593
Samsung Galaxy 1149;старинка;245155
Iphone 1150;новинка;192381
Iphone 1151;новинка;195545
Iphone 1152;новинка;261617
Iphone 1153;новинка;172743
Samsung Galaxy 1154;старинка;16964
Iphone 1155;новинка;188467
Iphone 1156;новинка;95697
Samsung Galaxy 1157;старинка;93709
Iphone 1158;новинка;299675
Iphone 1159;новинка;290594
Iphone 1160;новинка;200324
Iphone 1161;новинка;40429
Iphone 1162;новинка;155988
Iphone 1163;новинка;73566
Iphone 1164;новинка;62047
Samsung Galaxy 1165;старинка;120316
Samsung Galaxy 1166;старинка;261035
Iphone 1167;новинка;35907
Iphone 1168;новинка;11365
Samsung Galaxy 1169;старинка;199337
Iphone 1170;новинка;189876
Iphone 1171;новинка;102308
Samsung Galaxy 1172;старинка;12121
Samsung Galaxy 1173;старинка;90225
Iphone 1174;новинка;106872
Iphone 1175;новинка;80045
Iphone 1176;новинка;14731
Samsung Galaxy 1177;старинка;254345
Iphone 1178;новинка;254501
Samsung Galaxy 1179;старинка;218704
Samsung Galaxy 1180;старинка;56101
Iphone 1181;новинка;278181
Samsung Galaxy 1182;старинка;65235
Iphone 1183;новинка;7873
Iphone 1184;новинка;96707
Iphone 1185;новинка;24598
Iphone 1186;новинка;121187
Iphone 1187;новинка;85371
Samsung Galaxy 1188;старинка;163500
Samsung Galaxy 1189;старинка;237284
Iphone 1190;новинка;154344
Iphone 1191;новинка;253980
Samsung Galaxy 1192;старинка;189201
Iphone 1193;новинка;53228
Iphone 1194;новинка;50398
Samsung Galaxy 1195;старинка;79535
Iphone 1196;новинка;95661
Iphone 1197;новинка;297457
Samsung Galaxy 1198;старинка;240855
Iphone 1199;новинка;41503
